{"meta": {"type": "collection", "filter": {"id": "https://media.services.pbs.org/api/v1/shows/adfb2f9d-f61e-4613-ac58-ab3bde582afb/specials/?id=", "slug": "https://media.services.pbs.org/api/v1/shows/adfb2f9d-f61e-4613-ac58-ab3bde582afb/specials/?slug=", "encored-on-gt": "https://media.services.pbs.org/api/v1/shows/adfb2f9d-f61e-4613-ac58-ab3bde582afb/specials/?encored-on-gt=", "encored-on-lt": "https://media.services.pbs.org/api/v1/shows/adfb2f9d-f61e-4613-ac58-ab3bde582afb/specials/?encored-on-lt="}, "sort": {"premiered_on": {"asc": "https://media.services.pbs.org/api/v1/shows/adfb2f9d-f61e-4613-ac58-ab3bde582afb/specials/?sort=premiered_on", "desc": "https://media.services.pbs.org/api/v1/shows/adfb2f9d-f61e-4613-ac58-ab3bde582afb/specials/?sort=-premiered_on"}, "encored_on": {"asc": "https://media.services.pbs.org/api/v1/shows/adfb2f9d-f61e-4613-ac58-ab3bde582afb/specials/?sort=encored_on", "desc": "https://media.services.pbs.org/api/v1/shows/adfb2f9d-f61e-4613-ac58-ab3bde582afb/specials/?sort=-encored_on"}, "title_sortable": {"asc": "https://media.services.pbs.org/api/v1/shows/adfb2f9d-f61e-4613-ac58-ab3bde582afb/specials/?sort=title_sortable", "desc": "https://media.services.pbs.org/api/v1/shows/adfb2f9d-f61e-4613-ac58-ab3bde582afb/specials/?sort=-title_sortable"}}, "pagination": {"per_page": 25, "count": 165}}, "jsonapi": {"version": "1.0"}, "links": {"prev": "https://media.services.pbs.org/api/v1/shows/adfb2f9d-f61e-4613-ac58-ab3bde582afb/specials/?page=5", "next": "https://media.services.pbs.org/api/v1/shows/adfb2f9d-f61e-4613-ac58-ab3bde582afb/specials/?page=7", "first": "https://media.services.pbs.org/api/v1/shows/adfb2f9d-f61e-4613-ac58-ab3bde582afb/specials/", "self": "https://media.services.pbs.org/api/v1/shows/adfb2f9d-f61e-4613-ac58-ab3bde582afb/specials/?page=6", "last": "https://media.services.pbs.org/api/v1/shows/adfb2f9d-f61e-4613-ac58-ab3bde582afb/specials/?page=7"}, "data": [{"id": "8c70f25e-e1dc-4519-ba1a-e11d3daabba5", "links": {"collections": "https://media.services.pbs.org/api/v1/specials/8c70f25e-e1dc-4519-ba1a-e11d3daabba5/collections/", "assets": "https://media.services.pbs.org/api/v1/specials/8c70f25e-e1dc-4519-ba1a-e11d3daabba5/assets/", "self": "https://media.services.pbs.org/api/v1/specials/8c70f25e-e1dc-4519-ba1a-e11d3daabba5/"}, "type": "special", "attributes": {"title": "Battle Jacket", "slug": "nova-battle-jacket", "title_sortable": "Battle Jacket", "tms_id": "", "description_short": "This self-sealing material prevents fuel tanks from leaking if they're shot. ", "description_long": "This self-sealing material prevents fuel tanks from leaking if they're shot. ", "premiered_on": "2013-08-29", "encored_on": "2013-08-29", "nola": "003805", "language": "en", "updated_at": "2015-01-27T10:12:26Z", "links": [{"value": "http://www.pbs.org/wgbh/nova/tech/making-stuff.html#making-stuff-smarter", "profile": "producer", "updated_at": "2017-04-11T07:18:50.130067Z"}]}}, {"id": "a9aca7c4-4fd8-45d6-846e-d96242cba1e1", "links": {"collections": "https://media.services.pbs.org/api/v1/specials/a9aca7c4-4fd8-45d6-846e-d96242cba1e1/collections/", "assets": "https://media.services.pbs.org/api/v1/specials/a9aca7c4-4fd8-45d6-846e-d96242cba1e1/assets/", "self": "https://media.services.pbs.org/api/v1/specials/a9aca7c4-4fd8-45d6-846e-d96242cba1e1/"}, "type": "special", "attributes": {"title": "Wheat Straw Plastic", "slug": "nova-wheat-straw-plastic", "title_sortable": "Wheat Straw Plastic", "tms_id": "", "description_short": "A car company is reducing petroleum use by using wheat straw in their plastic.", "description_long": "A car company is reducing petroleum use by using wheat straw in their plastic.", "premiered_on": "2013-08-29", "encored_on": "2013-08-29", "nola": "003804", "language": "en", "updated_at": "2015-01-27T10:04:18Z", "links": [{"value": "http://www.pbs.org/wgbh/nova/tech/making-stuff.html#making-stuff-cleaner", "profile": "producer", "updated_at": "2017-04-11T07:18:50.130067Z"}]}}, {"id": "ecc8ad99-99db-4467-8517-4358ce8864a7", "links": {"collections": "https://media.services.pbs.org/api/v1/specials/ecc8ad99-99db-4467-8517-4358ce8864a7/collections/", "assets": "https://media.services.pbs.org/api/v1/specials/ecc8ad99-99db-4467-8517-4358ce8864a7/assets/", "self": "https://media.services.pbs.org/api/v1/specials/ecc8ad99-99db-4467-8517-4358ce8864a7/"}, "type": "special", "attributes": {"title": "Solar Leaves", "slug": "nova-solar-leaves", "title_sortable": "Solar Leaves", "tms_id": "", "description_short": "These solar \"leaves\" can produce more electricity than traditional solar panels.", "description_long": "These solar \"leaves\" can produce more electricity than traditional solar panels.", "premiered_on": "2013-08-29", "encored_on": "2013-08-29", "nola": "003804", "language": "en", "updated_at": "2015-01-27T10:01:47Z", "links": [{"value": "http://www.pbs.org/wgbh/nova/tech/making-stuff.html#making-stuff-cleaner", "profile": "producer", "updated_at": "2017-04-11T07:18:50.130067Z"}]}}, {"id": "07b60a5c-b918-462a-a52a-77b55e4fa502", "links": {"collections": "https://media.services.pbs.org/api/v1/specials/07b60a5c-b918-462a-a52a-77b55e4fa502/collections/", "assets": "https://media.services.pbs.org/api/v1/specials/07b60a5c-b918-462a-a52a-77b55e4fa502/assets/", "self": "https://media.services.pbs.org/api/v1/specials/07b60a5c-b918-462a-a52a-77b55e4fa502/"}, "type": "special", "attributes": {"title": "Silicon Transistors", "slug": "nova-silicon-transistors", "title_sortable": "Silicon Transistors", "tms_id": "", "description_short": "Silicon is a semiconductor, and makes an excellent transistor in a computer chip.", "description_long": "Silicon is a semiconductor, and makes an excellent transistor in a computer chip.", "premiered_on": "2013-08-29", "encored_on": "2013-08-29", "nola": "003803", "language": "en", "updated_at": "2015-01-27T10:12:26Z", "links": [{"value": "http://www.pbs.org/wgbh/nova/tech/making-stuff.html#making-stuff-smaller", "profile": "producer", "updated_at": "2017-04-11T07:18:50.130067Z"}]}}, {"id": "55d9e3cd-9ecf-4f56-ac14-17ddf5ba9c4e", "links": {"collections": "https://media.services.pbs.org/api/v1/specials/55d9e3cd-9ecf-4f56-ac14-17ddf5ba9c4e/collections/", "assets": "https://media.services.pbs.org/api/v1/specials/55d9e3cd-9ecf-4f56-ac14-17ddf5ba9c4e/assets/", "self": "https://media.services.pbs.org/api/v1/specials/55d9e3cd-9ecf-4f56-ac14-17ddf5ba9c4e/"}, "type": "special", "attributes": {"title": "Life-Saving Non-Newtonian Fluids", "slug": "nova-life-saving-non-newtonian-fluids", "title_sortable": "Life-Saving Non-Newtonian Fluids", "tms_id": "", "description_short": "These materials are used in shock absorbers and to make buildings earthquake resistant.", "description_long": "These materials are used in shock absorbers and to make buildings more earthquake resistant.", "premiered_on": "2013-08-29", "encored_on": "2013-08-29", "nola": "003805", "language": "en", "updated_at": "2015-01-27T10:05:25Z", "links": [{"value": "http://www.pbs.org/wgbh/nova/tech/making-stuff.html#making-stuff-smarter", "profile": "producer", "updated_at": "2017-04-11T07:18:50.130067Z"}]}}, {"id": "65885aaf-af5d-46d1-bc7d-0a24901aa69a", "links": {"collections": "https://media.services.pbs.org/api/v1/specials/65885aaf-af5d-46d1-bc7d-0a24901aa69a/collections/", "assets": "https://media.services.pbs.org/api/v1/specials/65885aaf-af5d-46d1-bc7d-0a24901aa69a/assets/", "self": "https://media.services.pbs.org/api/v1/specials/65885aaf-af5d-46d1-bc7d-0a24901aa69a/"}, "type": "special", "attributes": {"title": "Magnetic Oobleck", "slug": "nova-magnetic-oobleck", "title_sortable": "Magnetic Oobleck", "tms_id": "", "description_short": "This fluid becomes more like a solid when a magnetic field is applied.", "description_long": "This fluid becomes more like a solid when a magnetic field is applied.", "premiered_on": "2013-08-29", "encored_on": "2013-08-29", "nola": "003805", "language": "en", "updated_at": "2015-01-27T10:05:26Z", "links": [{"value": "http://www.pbs.org/wgbh/nova/tech/making-stuff.html#making-stuff-smarter", "profile": "producer", "updated_at": "2017-04-11T07:18:50.130067Z"}]}}, {"id": "febf92a9-6e34-4381-92a5-3c594a38d9d0", "links": {"collections": "https://media.services.pbs.org/api/v1/specials/febf92a9-6e34-4381-92a5-3c594a38d9d0/collections/", "assets": "https://media.services.pbs.org/api/v1/specials/febf92a9-6e34-4381-92a5-3c594a38d9d0/assets/", "self": "https://media.services.pbs.org/api/v1/specials/febf92a9-6e34-4381-92a5-3c594a38d9d0/"}, "type": "special", "attributes": {"title": "Starling 8", "slug": "nova-swarm-algorithm", "title_sortable": "Starling 8", "tms_id": "", "description_short": "David Pogue checks out swarming robots.", "description_long": "David Pogue checks out swarming robots.", "premiered_on": "2013-07-15", "encored_on": "2013-07-15", "nola": "", "language": "en", "updated_at": "2015-01-27T10:07:28Z", "links": []}}, {"id": "b31c959d-d4ec-4ee9-a534-24236251ea46", "links": {"collections": "https://media.services.pbs.org/api/v1/specials/b31c959d-d4ec-4ee9-a534-24236251ea46/collections/", "assets": "https://media.services.pbs.org/api/v1/specials/b31c959d-d4ec-4ee9-a534-24236251ea46/assets/", "self": "https://media.services.pbs.org/api/v1/specials/b31c959d-d4ec-4ee9-a534-24236251ea46/"}, "type": "special", "attributes": {"title": "sandy-raw-5-1", "slug": "nova-sandy-raw-5-1", "title_sortable": "sandy-raw-5-1", "tms_id": "", "description_short": "Visit NOVA Labs: pbs.org/nova/labs", "description_long": "Visit NOVA Labs: pbs.org/nova/labs", "premiered_on": "2013-07-08", "encored_on": "2013-07-08", "nola": "", "language": "en", "updated_at": "2015-01-27T10:18:56Z", "links": []}}, {"id": "5ec06047-0739-42fb-a740-72a84645f479", "links": {"collections": "https://media.services.pbs.org/api/v1/specials/5ec06047-0739-42fb-a740-72a84645f479/collections/", "assets": "https://media.services.pbs.org/api/v1/specials/5ec06047-0739-42fb-a740-72a84645f479/assets/", "self": "https://media.services.pbs.org/api/v1/specials/5ec06047-0739-42fb-a740-72a84645f479/"}, "type": "special", "attributes": {"title": "sandy-raw-1-2", "slug": "nova-sandy-raw-1-2", "title_sortable": "sandy-raw-1-2", "tms_id": "", "description_short": "Visit NOVA Labs: pbs.org/nova/labs", "description_long": "Visit NOVA Labs: pbs.org/nova/labs", "premiered_on": "2013-07-08", "encored_on": "2013-07-08", "nola": "", "language": "en", "updated_at": "2015-01-27T10:19:52Z", "links": []}}, {"id": "a7ca8d44-fe1b-4e69-8e33-3d96a82e1742", "links": {"collections": "https://media.services.pbs.org/api/v1/specials/a7ca8d44-fe1b-4e69-8e33-3d96a82e1742/collections/", "assets": "https://media.services.pbs.org/api/v1/specials/a7ca8d44-fe1b-4e69-8e33-3d96a82e1742/assets/", "self": "https://media.services.pbs.org/api/v1/specials/a7ca8d44-fe1b-4e69-8e33-3d96a82e1742/"}, "type": "special", "attributes": {"title": "Chemotherapy Goes Small", "slug": "nova-chemotherapy-goes-small", "title_sortable": "Chemotherapy Goes Small", "tms_id": "", "description_short": "Scientists are using nanoparticles to make more effective chemotherapy treatments.", "description_long": "Scientists are using nanoparticles to make more effective chemotherapy treatments.", "premiered_on": "2013-07-01", "encored_on": "2013-07-01", "nola": "003805", "language": "en", "updated_at": "2015-01-27T10:08:51Z", "links": [{"value": "http://www.pbs.org/wgbh/nova/tech/making-stuff.html#making-stuff-smarter", "profile": "producer", "updated_at": "2017-04-11T07:18:50.130067Z"}]}}, {"id": "4586f099-1a0b-4185-9739-57747a0d8a26", "links": {"collections": "https://media.services.pbs.org/api/v1/specials/4586f099-1a0b-4185-9739-57747a0d8a26/collections/", "assets": "https://media.services.pbs.org/api/v1/specials/4586f099-1a0b-4185-9739-57747a0d8a26/assets/", "self": "https://media.services.pbs.org/api/v1/specials/4586f099-1a0b-4185-9739-57747a0d8a26/"}, "type": "special", "attributes": {"title": "Severe Storms", "slug": "nova-severe-storms", "title_sortable": "Severe Storms", "tms_id": "", "description_short": "Visit NOVA Labs: pbs.org/nova/labs", "description_long": "Visit NOVA Labs: pbs.org/nova/labs", "premiered_on": "2013-06-30", "encored_on": "2013-06-30", "nola": "", "language": "en", "updated_at": "2015-01-27T10:18:53Z", "links": []}}, {"id": "af71253c-c17b-4bc7-acfc-1a125301945d", "links": {"collections": "https://media.services.pbs.org/api/v1/specials/af71253c-c17b-4bc7-acfc-1a125301945d/collections/", "assets": "https://media.services.pbs.org/api/v1/specials/af71253c-c17b-4bc7-acfc-1a125301945d/assets/", "self": "https://media.services.pbs.org/api/v1/specials/af71253c-c17b-4bc7-acfc-1a125301945d/"}, "type": "special", "attributes": {"title": "Clouds and Weather", "slug": "nova-clouds-and-weather", "title_sortable": "Clouds and Weather", "tms_id": "", "description_short": "Visit NOVA Labs: pbs.org/nova/labs", "description_long": "Visit NOVA Labs: pbs.org/nova/labs", "premiered_on": "2013-06-30", "encored_on": "2013-06-30", "nola": "", "language": "en", "updated_at": "2015-01-27T10:22:27Z", "links": []}}, {"id": "4eb15462-2fb3-48d4-9575-461dcb5935d1", "links": {"collections": "https://media.services.pbs.org/api/v1/specials/4eb15462-2fb3-48d4-9575-461dcb5935d1/collections/", "assets": "https://media.services.pbs.org/api/v1/specials/4eb15462-2fb3-48d4-9575-461dcb5935d1/assets/", "self": "https://media.services.pbs.org/api/v1/specials/4eb15462-2fb3-48d4-9575-461dcb5935d1/"}, "type": "special", "attributes": {"title": "Why So Many Cloud Types?", "slug": "nova-why-so-many-cloud-types", "title_sortable": "Why So Many Cloud Types?", "tms_id": "", "description_short": "Visit NOVA Labs: pbs.org/nova/labs", "description_long": "Visit NOVA Labs: pbs.org/nova/labs", "premiered_on": "2013-06-30", "encored_on": "2013-06-30", "nola": "", "language": "en", "updated_at": "2015-01-27T10:18:56Z", "links": []}}, {"id": "fb29114a-f79b-421f-989c-117167be9fd7", "links": {"collections": "https://media.services.pbs.org/api/v1/specials/fb29114a-f79b-421f-989c-117167be9fd7/collections/", "assets": "https://media.services.pbs.org/api/v1/specials/fb29114a-f79b-421f-989c-117167be9fd7/assets/", "self": "https://media.services.pbs.org/api/v1/specials/fb29114a-f79b-421f-989c-117167be9fd7/"}, "type": "special", "attributes": {"title": "The Making of a Cloud Old", "slug": "nova-making-cloud", "title_sortable": "The Making of a Cloud Old", "tms_id": "", "description_short": "Visit NOVA Labs: pbs.org/nova/labs", "description_long": "Visit NOVA Labs: pbs.org/nova/labs", "premiered_on": "2013-06-30", "encored_on": "2013-06-30", "nola": "", "language": "en", "updated_at": "2016-03-04T18:07:35Z", "links": []}}, {"id": "4f4ab67f-6973-4f63-b656-209e246101d5", "links": {"collections": "https://media.services.pbs.org/api/v1/specials/4f4ab67f-6973-4f63-b656-209e246101d5/collections/", "assets": "https://media.services.pbs.org/api/v1/specials/4f4ab67f-6973-4f63-b656-209e246101d5/assets/", "self": "https://media.services.pbs.org/api/v1/specials/4f4ab67f-6973-4f63-b656-209e246101d5/"}, "type": "special", "attributes": {"title": "Putting Energy to Use Old", "slug": "nova-putting-energy-use", "title_sortable": "Putting Energy to Use Old", "tms_id": "", "description_short": "Society has been revolutionized by our ability to convert energy from one form to another.", "description_long": "Society has been revolutionized by our ability to convert energy from one form to another.", "premiered_on": "2012-10-08", "encored_on": "2013-06-30", "nola": "001", "language": "en", "updated_at": "2016-03-04T18:11:04Z", "links": []}}, {"id": "ece036e1-b0b9-4304-9d11-9540e7fc7308", "links": {"collections": "https://media.services.pbs.org/api/v1/specials/ece036e1-b0b9-4304-9d11-9540e7fc7308/collections/", "assets": "https://media.services.pbs.org/api/v1/specials/ece036e1-b0b9-4304-9d11-9540e7fc7308/assets/", "self": "https://media.services.pbs.org/api/v1/specials/ece036e1-b0b9-4304-9d11-9540e7fc7308/"}, "type": "special", "attributes": {"title": "Solving the Storage Problem", "slug": "nova-solving-storage-problem", "title_sortable": "Solving the Storage Problem", "tms_id": "", "description_short": "Finding better ways to store electricity is critical for a sustainable energy future.", "description_long": "Finding better ways to store electricity is critical for a sustainable energy future.", "premiered_on": "2012-10-25", "encored_on": "2013-06-30", "nola": "001", "language": "en", "updated_at": "2015-01-27T10:22:43Z", "links": []}}, {"id": "0154d740-9f2a-467e-9e0c-b47340b24b2b", "links": {"collections": "https://media.services.pbs.org/api/v1/specials/0154d740-9f2a-467e-9e0c-b47340b24b2b/collections/", "assets": "https://media.services.pbs.org/api/v1/specials/0154d740-9f2a-467e-9e0c-b47340b24b2b/assets/", "self": "https://media.services.pbs.org/api/v1/specials/0154d740-9f2a-467e-9e0c-b47340b24b2b/"}, "type": "special", "attributes": {"title": "The Coriolis Effect", "slug": "nova-coriolis-effect", "title_sortable": "The Coriolis Effect", "tms_id": "", "description_short": "Visit NOVA Labs: pbs.org/nova/labs", "description_long": "Visit NOVA Labs: pbs.org/nova/labs", "premiered_on": "2013-06-30", "encored_on": "2013-06-30", "nola": "", "language": "en", "updated_at": "2015-01-27T10:17:49Z", "links": []}}, {"id": "d1188b16-c7e6-4873-a33b-634dad6108f1", "links": {"collections": "https://media.services.pbs.org/api/v1/specials/d1188b16-c7e6-4873-a33b-634dad6108f1/collections/", "assets": "https://media.services.pbs.org/api/v1/specials/d1188b16-c7e6-4873-a33b-634dad6108f1/assets/", "self": "https://media.services.pbs.org/api/v1/specials/d1188b16-c7e6-4873-a33b-634dad6108f1/"}, "type": "special", "attributes": {"title": "The Climate Wild Card", "slug": "nova-climate-wild-card", "title_sortable": "The Climate Wild Card", "tms_id": "", "description_short": "Visit NOVA Labs: pbs.org/nova/labs", "description_long": "Visit NOVA Labs: pbs.org/nova/labs", "premiered_on": "2013-06-30", "encored_on": "2013-06-30", "nola": "", "language": "en", "updated_at": "2015-01-27T10:21:34Z", "links": []}}, {"id": "d330996e-b4a9-44b0-ae97-eadc4ed6894d", "links": {"collections": "https://media.services.pbs.org/api/v1/specials/d330996e-b4a9-44b0-ae97-eadc4ed6894d/collections/", "assets": "https://media.services.pbs.org/api/v1/specials/d330996e-b4a9-44b0-ae97-eadc4ed6894d/assets/", "self": "https://media.services.pbs.org/api/v1/specials/d330996e-b4a9-44b0-ae97-eadc4ed6894d/"}, "type": "special", "attributes": {"title": "Life on Europa?", "slug": "nova-life-europa", "title_sortable": "Life on Europa?", "tms_id": "", "description_short": "Europa\u2019s icy surface may cover a salty ocean. Could life lurk in the depths?", "description_long": "Europa\u2019s icy surface may cover a salty ocean. Could life lurk in the depths?", "premiered_on": "2013-06-09", "encored_on": "2013-06-09", "nola": "", "language": "en", "updated_at": "2017-04-11T16:22:35.619388Z", "links": []}}, {"id": "05218116-66ef-444e-a02b-d4a9e70c8a7d", "links": {"collections": "https://media.services.pbs.org/api/v1/specials/05218116-66ef-444e-a02b-d4a9e70c8a7d/collections/", "assets": "https://media.services.pbs.org/api/v1/specials/05218116-66ef-444e-a02b-d4a9e70c8a7d/assets/", "self": "https://media.services.pbs.org/api/v1/specials/05218116-66ef-444e-a02b-d4a9e70c8a7d/"}, "type": "special", "attributes": {"title": "CloudLab_Megastorm_06", "slug": "nova-cloudlab_megastorm_06", "title_sortable": "CloudLab_Megastorm_06", "tms_id": "", "description_short": "CloudLab_Megastorm_06", "description_long": "CloudLab_Megastorm_06", "premiered_on": "2013-05-29", "encored_on": "2013-05-29", "nola": "001", "language": "en", "updated_at": "2015-01-27T10:23:49Z", "links": []}}, {"id": "db903aac-3b93-4c22-a8e2-def836def294", "links": {"collections": "https://media.services.pbs.org/api/v1/specials/db903aac-3b93-4c22-a8e2-def836def294/collections/", "assets": "https://media.services.pbs.org/api/v1/specials/db903aac-3b93-4c22-a8e2-def836def294/assets/", "self": "https://media.services.pbs.org/api/v1/specials/db903aac-3b93-4c22-a8e2-def836def294/"}, "type": "special", "attributes": {"title": "CloudLab_Megastorm_07", "slug": "nova-cloudlab_megastorm_07", "title_sortable": "CloudLab_Megastorm_07", "tms_id": "", "description_short": "CloudLab_Megastorm_07", "description_long": "CloudLab_Megastorm_07", "premiered_on": "2013-05-29", "encored_on": "2013-05-29", "nola": "001", "language": "en", "updated_at": "2015-01-27T10:24:12Z", "links": []}}, {"id": "e7e3648b-0d4e-4f38-8b35-d850b7be1e94", "links": {"collections": "https://media.services.pbs.org/api/v1/specials/e7e3648b-0d4e-4f38-8b35-d850b7be1e94/collections/", "assets": "https://media.services.pbs.org/api/v1/specials/e7e3648b-0d4e-4f38-8b35-d850b7be1e94/assets/", "self": "https://media.services.pbs.org/api/v1/specials/e7e3648b-0d4e-4f38-8b35-d850b7be1e94/"}, "type": "special", "attributes": {"title": "CloudLab_Megastorm_01", "slug": "nova-cloudlab_megastorm_01", "title_sortable": "CloudLab_Megastorm_01", "tms_id": "", "description_short": "CloudLab_Megastorm_01", "description_long": "CloudLab_Megastorm_01", "premiered_on": "2013-05-28", "encored_on": "2013-05-29", "nola": "001", "language": "en", "updated_at": "2015-01-27T10:15:12Z", "links": []}}, {"id": "2f74a17c-9495-4db6-b254-6b8fb5111cd3", "links": {"collections": "https://media.services.pbs.org/api/v1/specials/2f74a17c-9495-4db6-b254-6b8fb5111cd3/collections/", "assets": "https://media.services.pbs.org/api/v1/specials/2f74a17c-9495-4db6-b254-6b8fb5111cd3/assets/", "self": "https://media.services.pbs.org/api/v1/specials/2f74a17c-9495-4db6-b254-6b8fb5111cd3/"}, "type": "special", "attributes": {"title": "CloudLab_Megastorm_05", "slug": "nova-cloudlab_megastorm_05", "title_sortable": "CloudLab_Megastorm_05", "tms_id": "", "description_short": "CloudLab_Megastorm_05", "description_long": "CloudLab_Megastorm_05", "premiered_on": "2013-05-29", "encored_on": "2013-05-29", "nola": "001", "language": "en", "updated_at": "2015-01-27T10:22:10Z", "links": []}}, {"id": "7da5ad94-60e8-4cd6-af56-ee56b7e4681e", "links": {"collections": "https://media.services.pbs.org/api/v1/specials/7da5ad94-60e8-4cd6-af56-ee56b7e4681e/collections/", "assets": "https://media.services.pbs.org/api/v1/specials/7da5ad94-60e8-4cd6-af56-ee56b7e4681e/assets/", "self": "https://media.services.pbs.org/api/v1/specials/7da5ad94-60e8-4cd6-af56-ee56b7e4681e/"}, "type": "special", "attributes": {"title": "CloudLab_Megastorm_04", "slug": "nova-cloudlab_megastorm_04", "title_sortable": "CloudLab_Megastorm_04", "tms_id": "", "description_short": "CloudLab_Megastorm_04", "description_long": "CloudLab_Megastorm_04", "premiered_on": "2013-05-29", "encored_on": "2013-05-29", "nola": "001", "language": "en", "updated_at": "2015-01-27T10:18:11Z", "links": []}}, {"id": "d102b8e4-644a-4ee4-b541-bf8c588eb834", "links": {"collections": "https://media.services.pbs.org/api/v1/specials/d102b8e4-644a-4ee4-b541-bf8c588eb834/collections/", "assets": "https://media.services.pbs.org/api/v1/specials/d102b8e4-644a-4ee4-b541-bf8c588eb834/assets/", "self": "https://media.services.pbs.org/api/v1/specials/d102b8e4-644a-4ee4-b541-bf8c588eb834/"}, "type": "special", "attributes": {"title": "CloudLab_Megastorm_02", "slug": "nova-cloudlab_megastorm_02", "title_sortable": "CloudLab_Megastorm_02", "tms_id": "", "description_short": "CloudLab_Megastorm_02", "description_long": "CloudLab_Megastorm_02", "premiered_on": "2013-05-28", "encored_on": "2013-05-29", "nola": "001", "language": "en", "updated_at": "2015-01-27T10:22:57Z", "links": []}}]}