{"meta": {"type": "collection", "filter": {"id": "https://media.services.pbs.org/api/v1/shows/adfb2f9d-f61e-4613-ac58-ab3bde582afb/specials/?id=", "slug": "https://media.services.pbs.org/api/v1/shows/adfb2f9d-f61e-4613-ac58-ab3bde582afb/specials/?slug=", "encored-on-gt": "https://media.services.pbs.org/api/v1/shows/adfb2f9d-f61e-4613-ac58-ab3bde582afb/specials/?encored-on-gt=", "encored-on-lt": "https://media.services.pbs.org/api/v1/shows/adfb2f9d-f61e-4613-ac58-ab3bde582afb/specials/?encored-on-lt="}, "sort": {"premiered_on": {"asc": "https://media.services.pbs.org/api/v1/shows/adfb2f9d-f61e-4613-ac58-ab3bde582afb/specials/?sort=premiered_on", "desc": "https://media.services.pbs.org/api/v1/shows/adfb2f9d-f61e-4613-ac58-ab3bde582afb/specials/?sort=-premiered_on"}, "encored_on": {"asc": "https://media.services.pbs.org/api/v1/shows/adfb2f9d-f61e-4613-ac58-ab3bde582afb/specials/?sort=encored_on", "desc": "https://media.services.pbs.org/api/v1/shows/adfb2f9d-f61e-4613-ac58-ab3bde582afb/specials/?sort=-encored_on"}, "title_sortable": {"asc": "https://media.services.pbs.org/api/v1/shows/adfb2f9d-f61e-4613-ac58-ab3bde582afb/specials/?sort=title_sortable", "desc": "https://media.services.pbs.org/api/v1/shows/adfb2f9d-f61e-4613-ac58-ab3bde582afb/specials/?sort=-title_sortable"}}, "pagination": {"per_page": 25, "count": 165}}, "jsonapi": {"version": "1.0"}, "links": {"prev": null, "next": "https://media.services.pbs.org/api/v1/shows/adfb2f9d-f61e-4613-ac58-ab3bde582afb/specials/?page=2", "first": "https://media.services.pbs.org/api/v1/shows/adfb2f9d-f61e-4613-ac58-ab3bde582afb/specials/", "self": "https://media.services.pbs.org/api/v1/shows/adfb2f9d-f61e-4613-ac58-ab3bde582afb/specials/", "last": "https://media.services.pbs.org/api/v1/shows/adfb2f9d-f61e-4613-ac58-ab3bde582afb/specials/?page=7"}, "data": [{"id": "2eb690f2-ebc4-41f6-9558-6962d8e43c48", "links": {"collections": "https://media.services.pbs.org/api/v1/specials/2eb690f2-ebc4-41f6-9558-6962d8e43c48/collections/", "assets": "https://media.services.pbs.org/api/v1/specials/2eb690f2-ebc4-41f6-9558-6962d8e43c48/assets/", "self": "https://media.services.pbs.org/api/v1/specials/2eb690f2-ebc4-41f6-9558-6962d8e43c48/"}, "type": "special", "attributes": {"title": "School of the Future - Spanish Version", "slug": "school-future-spanish-version-tu3i4f", "title_sortable": "School of the Future - Spanish Version", "tms_id": "", "description_short": "How can the science of learning help us rethink the future of education for all children?", "description_long": "How can the science of learning help us rethink the future of education for all children? Airing September 14, 2016 at 9 pm on PBS", "premiered_on": "2017-07-18", "encored_on": "2017-07-18", "nola": "004315", "language": "en", "updated_at": "2017-07-18T15:51:55.081936Z", "links": []}}, {"id": "a3410528-7f72-47e8-b28d-6861693b9309", "links": {"collections": "https://media.services.pbs.org/api/v1/specials/a3410528-7f72-47e8-b28d-6861693b9309/collections/", "assets": "https://media.services.pbs.org/api/v1/specials/a3410528-7f72-47e8-b28d-6861693b9309/assets/", "self": "https://media.services.pbs.org/api/v1/specials/a3410528-7f72-47e8-b28d-6861693b9309/"}, "type": "special", "attributes": {"title": "Front Row Seat to Saturn", "slug": "front-row-seat-saturn", "title_sortable": "", "tms_id": "", "description_short": "Out near Saturn, the spacecraft Cassini has just entered its final and riskiest chapter.", "description_long": "For almost 13 years, the spacecraft Cassini has been in the Saturn system, documenting the planet and its moons. Cassini\u2019s days are numbered\u2014on 15 September, it will be sent hurtling towards Saturn. But just because it\u2019s running out of fuel doesn\u2019t mean it\u2019s running out of fire. Cassini has a lot more science to do in its final chapter.", "premiered_on": "2017-04-27", "encored_on": "2017-04-27", "nola": "", "language": "en", "updated_at": "2017-04-27T19:11:12.649338Z", "links": []}}, {"id": "d7de0b32-94fe-4b50-a438-03c08b612770", "links": {"collections": "https://media.services.pbs.org/api/v1/specials/d7de0b32-94fe-4b50-a438-03c08b612770/collections/", "assets": "https://media.services.pbs.org/api/v1/specials/d7de0b32-94fe-4b50-a438-03c08b612770/assets/", "self": "https://media.services.pbs.org/api/v1/specials/d7de0b32-94fe-4b50-a438-03c08b612770/"}, "type": "special", "attributes": {"title": "The Nuclear Option", "slug": "nova-nuclear-option", "title_sortable": "The Nuclear Option", "tms_id": "", "description_short": "How will we power the planet without wrecking the climate?", "description_long": "How will we power the planet without wrecking the climate?", "premiered_on": "2017-01-10", "encored_on": "2017-01-10", "nola": "004402", "language": "en", "updated_at": "2017-02-10T15:15:17Z", "links": [{"value": "http://www.shoppbs.org/product/index.jsp?productId=117651616&utm_source=PBS&utm_medium=Link&utm_content=nova_nuclear-option_covebuyit&utm_campaign=cove_buyit", "profile": "buy-dvd", "updated_at": "2017-04-11T07:18:50.130067Z"}, {"value": "https://geo.itunes.apple.com/us/tv-season/nova-vol.-16/id1148730461?at=11l3Sf&ct=NOVA16COVE", "profile": "itunes", "updated_at": "2017-04-11T07:18:50.130067Z"}]}}, {"id": "13d9ced2-c44e-48f5-9cd5-8a4081ecc8cf", "links": {"collections": "https://media.services.pbs.org/api/v1/specials/13d9ced2-c44e-48f5-9cd5-8a4081ecc8cf/collections/", "assets": "https://media.services.pbs.org/api/v1/specials/13d9ced2-c44e-48f5-9cd5-8a4081ecc8cf/assets/", "self": "https://media.services.pbs.org/api/v1/specials/13d9ced2-c44e-48f5-9cd5-8a4081ecc8cf/"}, "type": "special", "attributes": {"title": "Secrets of the Sky Tombs", "slug": "nova-secrets-sky-tombs", "title_sortable": "Secrets of the Sky Tombs", "tms_id": "", "description_short": "Evidence discovered in the world\u2019s highest tombs reveals ancient rituals and beliefs.", "description_long": "Evidence discovered in the world\u2019s highest tombs reveals ancient rituals and beliefs.", "premiered_on": "2017-01-04", "encored_on": "2017-01-04", "nola": "004401", "language": "en", "updated_at": "2017-04-11T16:26:02.627976Z", "links": [{"value": "https://geo.itunes.apple.com/us/tv-season/nova-vol.-16/id1148730461?at=11l3Sf&ct=NOVA16COVE", "profile": "itunes", "updated_at": "2017-04-11T07:18:50.130067Z"}]}}, {"id": "54befe20-2f21-446f-a853-31fc8085ca70", "links": {"collections": "https://media.services.pbs.org/api/v1/specials/54befe20-2f21-446f-a853-31fc8085ca70/collections/", "assets": "https://media.services.pbs.org/api/v1/specials/54befe20-2f21-446f-a853-31fc8085ca70/assets/", "self": "https://media.services.pbs.org/api/v1/specials/54befe20-2f21-446f-a853-31fc8085ca70/"}, "type": "special", "attributes": {"title": "NOVA 2017 Sizzle Reel", "slug": "nova-nova-2017-sizzle-reel", "title_sortable": "NOVA 2017 Sizzle Reel", "tms_id": "", "description_short": "A preview of the NOVA's 2017 season", "description_long": "A preview of the NOVA's 2017 season", "premiered_on": "2016-12-14", "encored_on": "2016-12-14", "nola": "", "language": "en", "updated_at": "2016-12-14T20:01:54Z", "links": []}}, {"id": "0d9aee2d-5d94-4420-bebb-f21cdaeef497", "links": {"collections": "https://media.services.pbs.org/api/v1/specials/0d9aee2d-5d94-4420-bebb-f21cdaeef497/collections/", "assets": "https://media.services.pbs.org/api/v1/specials/0d9aee2d-5d94-4420-bebb-f21cdaeef497/assets/", "self": "https://media.services.pbs.org/api/v1/specials/0d9aee2d-5d94-4420-bebb-f21cdaeef497/"}, "type": "special", "attributes": {"title": "Treasures Metals Eiffel Tower", "slug": "nova-treasures-metals-eiffel-tower", "title_sortable": "Treasures Metals Eiffel Tower", "tms_id": "", "description_short": "An excerpt from \"Treasures of the Earth: Metals\"", "description_long": "", "premiered_on": "2016-12-09", "encored_on": "2016-12-09", "nola": "004319", "language": "en", "updated_at": "2016-12-09T21:51:24Z", "links": []}}, {"id": "8c3c20ed-6e47-4abf-b327-ebfed61873ee", "links": {"collections": "https://media.services.pbs.org/api/v1/specials/8c3c20ed-6e47-4abf-b327-ebfed61873ee/collections/", "assets": "https://media.services.pbs.org/api/v1/specials/8c3c20ed-6e47-4abf-b327-ebfed61873ee/assets/", "self": "https://media.services.pbs.org/api/v1/specials/8c3c20ed-6e47-4abf-b327-ebfed61873ee/"}, "type": "special", "attributes": {"title": "Treasures of the Earth: Power", "slug": "nova-treasures-earth-power-pro", "title_sortable": "Treasures of the Earth: Power", "tms_id": "", "description_short": "Drill underground to see the treasures that power our world\u2014today and into the future.", "description_long": "Drill underground to see the treasures that power our world\u2014today and into the future.", "premiered_on": "2016-11-16", "encored_on": "2016-11-16", "nola": "004320", "language": "en", "updated_at": "2017-04-11T16:30:50.416751Z", "links": [{"value": "http://www.shoppbs.org/product/index.jsp?productId=112935526&utm_source=PBS&utm_medium=Link&utm_content=nova_treasure-of-the-earth_covebuyit&utm_campaign=cove_buyit", "profile": "buy-dvd", "updated_at": "2017-04-11T07:18:50.130067Z"}, {"value": "https://geo.itunes.apple.com/us/tv-season/nova-vol.-16/id1148730461?at=11l3Sf&ct=NOVA16COVE", "profile": "itunes", "updated_at": "2017-04-11T07:18:50.130067Z"}]}}, {"id": "ed8a6763-f4d9-4804-a2d5-7b58a87da5a3", "links": {"collections": "https://media.services.pbs.org/api/v1/specials/ed8a6763-f4d9-4804-a2d5-7b58a87da5a3/collections/", "assets": "https://media.services.pbs.org/api/v1/specials/ed8a6763-f4d9-4804-a2d5-7b58a87da5a3/assets/", "self": "https://media.services.pbs.org/api/v1/specials/ed8a6763-f4d9-4804-a2d5-7b58a87da5a3/"}, "type": "special", "attributes": {"title": "Treasures of the Earth: Metals", "slug": "nova-treasures-earth-metals", "title_sortable": "Treasures of the Earth: Metals", "tms_id": "", "description_short": "What is it about the nature of metals that have made them a pillar of human civilization?", "description_long": "What is it about the nature of metals that have made them a pillar of human civilization?", "premiered_on": "2016-11-09", "encored_on": "2016-11-09", "nola": "004319", "language": "en", "updated_at": "2017-01-07T01:45:01Z", "links": [{"value": "http://www.shoppbs.org/product/index.jsp?productId=112935526&utm_source=PBS&utm_medium=Link&utm_content=nova_treasure-of-the-earth_covebuyit&utm_campaign=cove_buyit", "profile": "buy-dvd", "updated_at": "2017-04-11T07:18:50.130067Z"}, {"value": "https://geo.itunes.apple.com/us/tv-season/nova-vol.-16/id1148730461?at=11l3Sf&ct=NOVA16COVE", "profile": "itunes", "updated_at": "2017-04-11T07:18:50.130067Z"}]}}, {"id": "5fe0309c-5e67-450e-b8e3-146993c36db5", "links": {"collections": "https://media.services.pbs.org/api/v1/specials/5fe0309c-5e67-450e-b8e3-146993c36db5/collections/", "assets": "https://media.services.pbs.org/api/v1/specials/5fe0309c-5e67-450e-b8e3-146993c36db5/assets/", "self": "https://media.services.pbs.org/api/v1/specials/5fe0309c-5e67-450e-b8e3-146993c36db5/"}, "type": "special", "attributes": {"title": "Treasures of the Earth: Gems", "slug": "nova-treasures-earth-gems", "title_sortable": "Treasures of the Earth: Gems", "tms_id": "", "description_short": "What processes in the depths of the Earth forge beautiful and precious stones?", "description_long": "What processes in the depths of the Earth forge beautiful and precious stones?", "premiered_on": "2016-11-02", "encored_on": "2016-11-02", "nola": "004318", "language": "en", "updated_at": "2017-01-07T01:46:16Z", "links": [{"value": "http://www.shoppbs.org/product/index.jsp?productId=112935526&utm_source=PBS&utm_medium=Link&utm_content=nova_treasure-of-the-earth_covebuyit&utm_campaign=cove_buyit", "profile": "buy-dvd", "updated_at": "2017-04-11T07:18:50.130067Z"}, {"value": "https://geo.itunes.apple.com/us/tv-season/nova-vol.-16/id1148730461?at=11l3Sf&ct=NOVA16COVE", "profile": "itunes", "updated_at": "2017-04-11T07:18:50.130067Z"}]}}, {"id": "729c184b-aee9-4aac-ba0f-95b28fe0c58f", "links": {"collections": "https://media.services.pbs.org/api/v1/specials/729c184b-aee9-4aac-ba0f-95b28fe0c58f/collections/", "assets": "https://media.services.pbs.org/api/v1/specials/729c184b-aee9-4aac-ba0f-95b28fe0c58f/assets/", "self": "https://media.services.pbs.org/api/v1/specials/729c184b-aee9-4aac-ba0f-95b28fe0c58f/"}, "type": "special", "attributes": {"title": "Holocaust Escape Tunnel Revealed", "slug": "nova-lithuanian-escape-tunnel-revealed", "title_sortable": "Holocaust Escape Tunnel Revealed", "tms_id": "", "description_short": "Archaeologists have found a long-rumored escape tunnel in \"the Jerusalem of Lithuania.\"", "description_long": "Archaeologists have found a long-rumored escape tunnel in \"the Jerusalem of Lithuania.\"", "premiered_on": "2016-06-29", "encored_on": "2016-06-29", "nola": "", "language": "en", "updated_at": "2016-06-29T04:40:52Z", "links": []}}, {"id": "446fb0ee-473f-4f4f-a0e7-fd989f8771fe", "links": {"collections": "https://media.services.pbs.org/api/v1/specials/446fb0ee-473f-4f4f-a0e7-fd989f8771fe/collections/", "assets": "https://media.services.pbs.org/api/v1/specials/446fb0ee-473f-4f4f-a0e7-fd989f8771fe/assets/", "self": "https://media.services.pbs.org/api/v1/specials/446fb0ee-473f-4f4f-a0e7-fd989f8771fe/"}, "type": "special", "attributes": {"title": "Making North America: Human ", "slug": "nova-making-north-america-human", "title_sortable": "Making North America: Human ", "tms_id": "", "description_short": "How has the land shaped our lives, from the arrival of the first Americans to today?", "description_long": "How has the land shaped our lives, from the arrival of the first Americans to today? Airing November 18, 2015 at 9 pm on PBS", "premiered_on": "2015-11-18", "encored_on": "2015-11-18", "nola": "004222", "language": "en", "updated_at": "2016-06-23T19:05:59Z", "links": [{"value": "http://www.pbs.org/wgbh/nova/earth/making-north-america.html#north-america-human", "profile": "producer", "updated_at": "2017-04-11T07:18:50.130067Z"}, {"value": "https://geo.itunes.apple.com/us/tv-season/nova-making-north-america/id1043275154?at=11l3Sf&ct=NOVANACOVE", "profile": "itunes", "updated_at": "2017-04-11T07:18:50.130067Z"}]}}, {"id": "ce5b492a-0bb3-4b8d-a7b1-5cad87159594", "links": {"collections": "https://media.services.pbs.org/api/v1/specials/ce5b492a-0bb3-4b8d-a7b1-5cad87159594/collections/", "assets": "https://media.services.pbs.org/api/v1/specials/ce5b492a-0bb3-4b8d-a7b1-5cad87159594/assets/", "self": "https://media.services.pbs.org/api/v1/specials/ce5b492a-0bb3-4b8d-a7b1-5cad87159594/"}, "type": "special", "attributes": {"title": "A Labyrinth of Lava", "slug": "nova-labyrinth-lava-map", "title_sortable": "A Labyrinth of Lava", "tms_id": "", "description_short": "The big island of Hawaii is shot through with an underground labyrinth carved out by lava.", "description_long": "The big island of Hawaii is shot through with an underground labyrinth carved out by lava.", "premiered_on": "2015-11-02", "encored_on": "2015-11-02", "nola": "004219", "language": "en", "updated_at": "2015-11-02T21:19:33Z", "links": [{"value": "http://www.pbs.org/wgbh/nova/earth/making-north-america.html#north-america-origins", "profile": "producer", "updated_at": "2017-04-11T07:18:50.130067Z"}]}}, {"id": "c29b1dfb-6337-469f-9b58-45fbca73a234", "links": {"collections": "https://media.services.pbs.org/api/v1/specials/c29b1dfb-6337-469f-9b58-45fbca73a234/collections/", "assets": "https://media.services.pbs.org/api/v1/specials/c29b1dfb-6337-469f-9b58-45fbca73a234/assets/", "self": "https://media.services.pbs.org/api/v1/specials/c29b1dfb-6337-469f-9b58-45fbca73a234/"}, "type": "special", "attributes": {"title": "Animal Mummies", "slug": "nova-animal-mummies-pro", "title_sortable": "Animal Mummies", "tms_id": "", "description_short": "How and why did the ancient Egyptians mummify their pets and other creatures?", "description_long": "How and why did the ancient Egyptians mummify their pets and other creatures? Airing October 28, 2015 at 9 pm on PBS", "premiered_on": "2015-10-28", "encored_on": "2015-10-28", "nola": "004219", "language": "en", "updated_at": "2015-11-24T23:57:33Z", "links": [{"value": "http://www.pbs.org/wgbh/nova/ancient/animal-mummies.html", "profile": "producer", "updated_at": "2017-04-11T07:18:50.130067Z"}, {"value": "https://geo.itunes.apple.com/us/tv-season/nova-vol.-14/id1033286616?at=11l3Sf&ct=NOVA14COVE", "profile": "itunes", "updated_at": "2017-04-11T07:18:50.130067Z"}]}}, {"id": "961aba67-8b4d-422d-9627-e20d6af68890", "links": {"collections": "https://media.services.pbs.org/api/v1/specials/961aba67-8b4d-422d-9627-e20d6af68890/collections/", "assets": "https://media.services.pbs.org/api/v1/specials/961aba67-8b4d-422d-9627-e20d6af68890/assets/", "self": "https://media.services.pbs.org/api/v1/specials/961aba67-8b4d-422d-9627-e20d6af68890/"}, "type": "special", "attributes": {"title": "Mammal Survivors", "slug": "nova-mammal-survivors", "title_sortable": "Mammal Survivors", "tms_id": "", "description_short": "This amazing fossil leaf just popped out of this rock.", "description_long": "This amazing fossil leaf just popped out of this rock.", "premiered_on": "2015-10-22", "encored_on": "2015-10-22", "nola": "004221", "language": "en", "updated_at": "2015-10-29T19:45:19Z", "links": [{"value": "http://www.pbs.org/wgbh/nova/earth/making-north-america.html#north-america-origins", "profile": "producer", "updated_at": "2017-04-11T07:18:50.130067Z"}]}}, {"id": "b2b05c41-14a9-40a5-9379-3a37b52f0fc9", "links": {"collections": "https://media.services.pbs.org/api/v1/specials/b2b05c41-14a9-40a5-9379-3a37b52f0fc9/collections/", "assets": "https://media.services.pbs.org/api/v1/specials/b2b05c41-14a9-40a5-9379-3a37b52f0fc9/assets/", "self": "https://media.services.pbs.org/api/v1/specials/b2b05c41-14a9-40a5-9379-3a37b52f0fc9/"}, "type": "special", "attributes": {"title": "Pangea", "slug": "nova-pangea", "title_sortable": "Pangea", "tms_id": "", "description_short": "The rocks here in Zion bear witness to a traumatic phase in our continent\u2019s history.", "description_long": "The rocks here in Zion bear witness to a traumatic phase in our continent\u2019s history.", "premiered_on": "2015-10-22", "encored_on": "2015-10-22", "nola": "004221", "language": "en", "updated_at": "2017-04-11T16:25:31.396700Z", "links": [{"value": "http://www.pbs.org/wgbh/nova/earth/making-north-america.html#north-america-origins", "profile": "producer", "updated_at": "2017-04-11T07:18:50.130067Z"}]}}, {"id": "35b592f3-6c16-464a-b79f-70f95f9b6d11", "links": {"collections": "https://media.services.pbs.org/api/v1/specials/35b592f3-6c16-464a-b79f-70f95f9b6d11/collections/", "assets": "https://media.services.pbs.org/api/v1/specials/35b592f3-6c16-464a-b79f-70f95f9b6d11/assets/", "self": "https://media.services.pbs.org/api/v1/specials/35b592f3-6c16-464a-b79f-70f95f9b6d11/"}, "type": "special", "attributes": {"title": "Hell Creek Formation", "slug": "nova-hell-creek-formation", "title_sortable": "Hell Creek Formation", "tms_id": "", "description_short": "These are the North Dakota Badlands\u0085 thousands of square miles of arid gullies and buttes.", "description_long": "These are the North Dakota Badlands\u0085 thousands of square miles of arid gullies and buttes.", "premiered_on": "2015-10-22", "encored_on": "2015-10-22", "nola": "004221", "language": "en", "updated_at": "2015-10-29T19:17:33Z", "links": [{"value": "http://www.pbs.org/wgbh/nova/earth/making-north-america.html#north-america-origins", "profile": "producer", "updated_at": "2017-04-11T07:18:50.130067Z"}]}}, {"id": "431e0413-458a-489e-a237-388cbe4ba818", "links": {"collections": "https://media.services.pbs.org/api/v1/specials/431e0413-458a-489e-a237-388cbe4ba818/collections/", "assets": "https://media.services.pbs.org/api/v1/specials/431e0413-458a-489e-a237-388cbe4ba818/assets/", "self": "https://media.services.pbs.org/api/v1/specials/431e0413-458a-489e-a237-388cbe4ba818/"}, "type": "special", "attributes": {"title": "A Massive Volcanic Eruption", "slug": "nova-massive-volcanic-eruption", "title_sortable": "A Massive Volcanic Eruption", "tms_id": "", "description_short": "This rock is what remains from one of the biggest volcanic eruptions ever.", "description_long": "This rock is what remains from one of the biggest volcanic eruptions from the history of our planet. ", "premiered_on": "2015-10-22", "encored_on": "2015-10-22", "nola": "004221", "language": "en", "updated_at": "2015-10-28T20:48:51Z", "links": [{"value": "http://www.pbs.org/wgbh/nova/earth/making-north-america.html#north-america-origins", "profile": "producer", "updated_at": "2017-04-11T07:18:50.130067Z"}]}}, {"id": "fcca6ddb-154c-44ca-ab5d-01f67277085b", "links": {"collections": "https://media.services.pbs.org/api/v1/specials/fcca6ddb-154c-44ca-ab5d-01f67277085b/collections/", "assets": "https://media.services.pbs.org/api/v1/specials/fcca6ddb-154c-44ca-ab5d-01f67277085b/assets/", "self": "https://media.services.pbs.org/api/v1/specials/fcca6ddb-154c-44ca-ab5d-01f67277085b/"}, "type": "special", "attributes": {"title": "Millions of Years Captured in Chalk", "slug": "nova-millions-years-captured-chalk", "title_sortable": "Millions of Years Captured in Chalk", "tms_id": "", "description_short": "In Kansas, some strange but spectacular shapes burst up out of the plains.", "description_long": "Just outside the town of Oakley in Western Kansas some strange but spectacular shapes burst up out of the plains. They\u2019re called the Monument Rocks.   ", "premiered_on": "2015-10-22", "encored_on": "2015-10-22", "nola": "004221", "language": "en", "updated_at": "2017-04-11T16:25:30.447163Z", "links": [{"value": "http://www.pbs.org/wgbh/nova/earth/making-north-america.html#north-america-origins", "profile": "producer", "updated_at": "2017-04-11T07:18:50.130067Z"}]}}, {"id": "06102148-d2e0-4fff-8229-92311cdb764c", "links": {"collections": "https://media.services.pbs.org/api/v1/specials/06102148-d2e0-4fff-8229-92311cdb764c/collections/", "assets": "https://media.services.pbs.org/api/v1/specials/06102148-d2e0-4fff-8229-92311cdb764c/assets/", "self": "https://media.services.pbs.org/api/v1/specials/06102148-d2e0-4fff-8229-92311cdb764c/"}, "type": "special", "attributes": {"title": "Making Granite From Volcanic Rock", "slug": "nova-making-granite-volcanic-rock", "title_sortable": "Making Granite From Volcanic Rock", "tms_id": "", "description_short": "It would take dramatic transformations to turn volcanic islands into the first continents.", "description_long": "It would take a dramatic transformation to turn volcanic islands like this into the first continents.", "premiered_on": "2015-10-22", "encored_on": "2015-10-22", "nola": "004221", "language": "en", "updated_at": "2015-10-27T18:09:17Z", "links": [{"value": "http://www.pbs.org/wgbh/nova/earth/making-north-america.html#north-america-origins", "profile": "producer", "updated_at": "2017-04-11T07:18:50.130067Z"}]}}, {"id": "c025d3ce-0a2e-482f-9aa9-c5b00e8152cf", "links": {"collections": "https://media.services.pbs.org/api/v1/specials/c025d3ce-0a2e-482f-9aa9-c5b00e8152cf/collections/", "assets": "https://media.services.pbs.org/api/v1/specials/c025d3ce-0a2e-482f-9aa9-c5b00e8152cf/assets/", "self": "https://media.services.pbs.org/api/v1/specials/c025d3ce-0a2e-482f-9aa9-c5b00e8152cf/"}, "type": "special", "attributes": {"title": "King of Gore", "slug": "nova-king-gore", "title_sortable": "King of Gore", "tms_id": "", "description_short": "When you put flesh on the bones of Lythronax, it looks a lot like T. rex.", "description_long": "When you put flesh on the bones of Lythronax, it looks a lot like the most famous and fearsome Tyrannosaurus rex.", "premiered_on": "2015-10-22", "encored_on": "2015-10-22", "nola": "004221", "language": "en", "updated_at": "2015-10-29T20:14:20Z", "links": [{"value": "http://www.pbs.org/wgbh/nova/earth/making-north-america.html#north-america-origins", "profile": "producer", "updated_at": "2017-04-11T07:18:50.130067Z"}]}}, {"id": "05013326-5c13-4369-bf7c-d54b95e1ae10", "links": {"collections": "https://media.services.pbs.org/api/v1/specials/05013326-5c13-4369-bf7c-d54b95e1ae10/collections/", "assets": "https://media.services.pbs.org/api/v1/specials/05013326-5c13-4369-bf7c-d54b95e1ae10/assets/", "self": "https://media.services.pbs.org/api/v1/specials/05013326-5c13-4369-bf7c-d54b95e1ae10/"}, "type": "special", "attributes": {"title": "From Mud to Rock", "slug": "nova-mud-rock", "title_sortable": "From Mud to Rock", "tms_id": "", "description_short": "It\u2019s the tough Manhattan schist rock that\u2019s allowed the city\u2019s skyscrapers to soar.", "description_long": "It\u2019s the tough Manhattan schist rock that\u2019s allowed the city\u2019s skyscrapers to soar.", "premiered_on": "2015-10-22", "encored_on": "2015-10-22", "nola": "004220", "language": "en", "updated_at": "2017-04-11T16:25:20.507868Z", "links": [{"value": "http://www.pbs.org/wgbh/nova/earth/making-north-america.html#north-america-origins", "profile": "producer", "updated_at": "2017-04-11T07:18:50.130067Z"}]}}, {"id": "49385b03-fe56-4e66-86bb-20254797114b", "links": {"collections": "https://media.services.pbs.org/api/v1/specials/49385b03-fe56-4e66-86bb-20254797114b/collections/", "assets": "https://media.services.pbs.org/api/v1/specials/49385b03-fe56-4e66-86bb-20254797114b/assets/", "self": "https://media.services.pbs.org/api/v1/specials/49385b03-fe56-4e66-86bb-20254797114b/"}, "type": "special", "attributes": {"title": "Dinosaur Fossils", "slug": "nova-dinosaur-fossils", "title_sortable": "Dinosaur Fossils", "tms_id": "", "description_short": "In an empty corner of Utah lies a very special landscape.", "description_long": "In an empty corner of Utah lies a very special landscape.", "premiered_on": "2015-10-22", "encored_on": "2015-10-22", "nola": "004221", "language": "en", "updated_at": "2015-11-03T16:45:48Z", "links": [{"value": "http://www.pbs.org/wgbh/nova/earth/making-north-america.html#north-america-origins", "profile": "producer", "updated_at": "2017-04-11T07:18:50.130067Z"}]}}, {"id": "367b772c-7d0d-4a93-84c3-a86805978cb5", "links": {"collections": "https://media.services.pbs.org/api/v1/specials/367b772c-7d0d-4a93-84c3-a86805978cb5/collections/", "assets": "https://media.services.pbs.org/api/v1/specials/367b772c-7d0d-4a93-84c3-a86805978cb5/assets/", "self": "https://media.services.pbs.org/api/v1/specials/367b772c-7d0d-4a93-84c3-a86805978cb5/"}, "type": "special", "attributes": {"title": "Driving Dinosaur Diversity", "slug": "nova-driving-dinosaur-diversity", "title_sortable": "Driving Dinosaur Diversity", "tms_id": "", "description_short": "So what is it with all this diversity?", "description_long": "So what is it with all this diversity?", "premiered_on": "2015-10-22", "encored_on": "2015-10-22", "nola": "004221", "language": "en", "updated_at": "2015-10-29T20:27:07Z", "links": [{"value": "http://www.pbs.org/wgbh/nova/earth/making-north-america.html#north-america-origins", "profile": "producer", "updated_at": "2017-04-11T07:18:50.130067Z"}]}}, {"id": "15b5a9c7-2ade-4822-8fe9-af7440456faa", "links": {"collections": "https://media.services.pbs.org/api/v1/specials/15b5a9c7-2ade-4822-8fe9-af7440456faa/collections/", "assets": "https://media.services.pbs.org/api/v1/specials/15b5a9c7-2ade-4822-8fe9-af7440456faa/assets/", "self": "https://media.services.pbs.org/api/v1/specials/15b5a9c7-2ade-4822-8fe9-af7440456faa/"}, "type": "special", "attributes": {"title": "Stromatolites Were Kings", "slug": "nova-stromatolies-were-kings", "title_sortable": "Stromatolites Were Kings", "tms_id": "", "description_short": "When the sand is swept away the stromatolites are vulnerable to the seaweeds.", "description_long": "When the sand is swept away the stromatolites are vulnerable to the seaweeds and coral that block the sun.", "premiered_on": "2015-10-22", "encored_on": "2015-10-22", "nola": "004221", "language": "en", "updated_at": "2015-11-03T16:23:13Z", "links": [{"value": "http://www.pbs.org/wgbh/nova/earth/making-north-america.html#north-america-origins", "profile": "producer", "updated_at": "2017-04-11T07:18:50.130067Z"}]}}, {"id": "12deb199-291b-4fd3-bd1d-9628e0dff55c", "links": {"collections": "https://media.services.pbs.org/api/v1/specials/12deb199-291b-4fd3-bd1d-9628e0dff55c/collections/", "assets": "https://media.services.pbs.org/api/v1/specials/12deb199-291b-4fd3-bd1d-9628e0dff55c/assets/", "self": "https://media.services.pbs.org/api/v1/specials/12deb199-291b-4fd3-bd1d-9628e0dff55c/"}, "type": "special", "attributes": {"title": "Finding Stromatolites", "slug": "nova-exuma-cays-bahamas", "title_sortable": "Finding Stromatolites", "tms_id": "", "description_short": "We\u2019re looking for one of the oldest organisms on our planet.", "description_long": "We\u2019re looking for one of the oldest organisms on our planet\u2014but as we descend there is not much sign of life. ", "premiered_on": "2015-10-22", "encored_on": "2015-10-22", "nola": "004221", "language": "en", "updated_at": "2017-04-11T16:25:30.173949Z", "links": [{"value": "http://www.pbs.org/wgbh/nova/earth/making-north-america.html#north-america-origins", "profile": "producer", "updated_at": "2017-04-11T07:18:50.130067Z"}]}}]}